{
	"auth": {
		"schobusAuth": {
			"service": "Cognito",
			"providerPlugin": "awscloudformation"
		}
	},
	"api": {
		"schobus": {
			"service": "AppSync",
			"providerPlugin": "awscloudformation",
			"output": {
				"securityType": "AMAZON_COGNITO_USER_POOLS"
			}
		}
	}
}