{
  "project_info": {
    "project_number": "534355586813",
    "firebase_url": "https://schobus-e059f.firebaseio.com",
    "project_id": "schobus-e059f",
    "storage_bucket": "schobus-e059f.appspot.com"
  },
  "client": [
    {
      "client_info": {
        "mobilesdk_app_id": "1:534355586813:android:98ad1fee39cf22c5",
        "android_client_info": {
          "package_name": "edu.amity.schobus"
        }
      },
      "oauth_client": [
        {
          "client_id": "534355586813-aodnc54eapfobbtbaiu1g9un3g0k8g8f.apps.googleusercontent.com",
          "client_type": 3
        }
      ],
      "api_key": [
        {
          "current_key": "AIzaSyDAVB2rZQo4yycm4gz_tQGaGW6VIe7J_xw"
        }
      ],
      "services": {
        "analytics_service": {
          "status": 1
        },
        "appinvite_service": {
          "status": 1,
          "other_platform_oauth_client": []
        },
        "ads_service": {
          "status": 2
        }
      }
    }
  ],
  "configuration_version": "1"
}