{
    "userPoolName": "Parents",
    "autoVerifiedAttributes": [
        "email"
    ],
    "mfaConfiguration": "OFF",
    "mfaTypes": [
        "SMS Text Message"
    ],
    "roleName": "schobubac7ead6_sns-role",
    "roleExternalId": "schobubac7ead6_role_external_id",
    "policyName": "schobubac7ead6-sns-policy",
    "smsAuthenticationMessage": "Your authentication code is {####}",
    "smsVerificationMessage": "Your verification code is {####}",
    "emailVerificationSubject": "Your verification code",
    "emailVerificationMessage": "Your verification code is {####}",
    "defaultPasswordPolicy": false,
    "passwordPolicyMinLength": 8,
    "passwordPolicyCharacters": [],
    "requiredAttributes": [],
    "userpoolClientName": "schobubac7ead6_app_client",
    "userpoolClientGenerateSecret": true,
    "userpoolClientRefreshTokenValidity": 30,
    "userpoolClientWriteAttributes": [
        "email"
    ],
    "userpoolClientReadAttributes": [
        "email",
        "phone_number"
    ],
    "mfaLambdaRole": "schobubac7ead6_totp_lambda_role",
    "mfaLambdaLogPolicy": "schobubac7ead6_totp_lambda_log_policy",
    "mfaPassRolePolicy": "schobubac7ead6_totp_pass_role_policy",
    "mfaLambdaIAMPolicy": "schobubac7ead6_totp_lambda_iam_policy",
    "userpoolClientLambdaRole": "schobubac7ead6_userpoolclient_lambda_role",
    "userpoolClientLogPolicy": "schobubac7ead6_userpoolclient_lambda_log_policy",
    "userpoolClientLambdaPolicy": "schobubac7ead6_userpoolclient_lambda_iam_policy",
    "userpoolClientSetAttributes": true,
    "useDefault": "manual",
    "authSelections": "userPoolOnly",
    "resourceName": "schobusAuth",
    "usernameAttributes": [
        "email, phone_number"
    ],
    "hostedUI": false,
    "authRoleName": {
        "Ref": "AuthRoleName"
    },
    "unauthRoleName": {
        "Ref": "UnauthRoleName"
    },
    "authRoleArn": {
        "Fn::GetAtt": [
            "AuthRole",
            "Arn"
        ]
    },
    "unauthRoleArn": {
        "Fn::GetAtt": [
            "UnauthRole",
            "Arn"
        ]
    }
}